[
    {
        "id": 1,
        "name": "concierge",
        "active": false
    },
    {
        "id": 2,
        "name": "restaurant",
        "active": false
    },
    {
        "id": 3,
        "name": "bar",
        "active": false
    },
    {
        "id": 4,
        "name": "meetingRooms",
        "active": false
    },
    {
        "id": 5,
        "name": "spa",
        "active": false
    },
    {
        "id": 6,
        "name": "golf",
        "active": false
    },
    {
        "id": 7,
        "name": "ski",
        "active": false
    },
    {
        "id": 8,
        "name": "beaches",
        "active": false
    }
]